ss://YWVzLTI1Ni1nY206ZTRGQ1dyZ3BramkzUVk=@198.57.27.172:9101#%e5%8a%a0%e6%8b%bf%e5%a4%a7(%e6%ac%a2%e8%bf%8e%e8%ae%a2%e9%98%85Youtube%e7%a0%b4%e8%a7%a3%e8%b5%84%e6%ba%90%e5%90%9b)
ss://YWVzLTI1Ni1nY206a0RXdlhZWm9UQmNHa0M0@198.57.27.172:8881#%e5%8a%a0%e6%8b%bf%e5%a4%a7(%e6%ac%a2%e8%bf%8e%e8%ae%a2%e9%98%85Youtube%e7%a0%b4%e8%a7%a3%e8%b5%84%e6%ba%90%e5%90%9b)
ss://YWVzLTI1Ni1nY206WTZSOXBBdHZ4eHptR0M=@198.57.27.172:3389#%e5%8a%a0%e6%8b%bf%e5%a4%a7(%e6%ac%a2%e8%bf%8e%e8%ae%a2%e9%98%85Youtube%e7%a0%b4%e8%a7%a3%e8%b5%84%e6%ba%90%e5%90%9b)
ss://YWVzLTI1Ni1nY206WEtGS2wyclVMaklwNzQ=@198.57.27.218:8009#%e5%8a%a0%e6%8b%bf%e5%a4%a7(%e6%ac%a2%e8%bf%8e%e8%ae%a2%e9%98%85Youtube%e7%a0%b4%e8%a7%a3%e8%b5%84%e6%ba%90%e5%90%9b)
ss://YWVzLTI1Ni1nY206UENubkg2U1FTbmZvUzI3@38.143.66.71:8091#%e7%be%8e%e5%9b%bd(%e6%ac%a2%e8%bf%8e%e8%ae%a2%e9%98%85Youtube%e7%a0%b4%e8%a7%a3%e8%b5%84%e6%ba%90%e5%90%9b)
ss://YWVzLTI1Ni1nY206UENubkg2U1FTbmZvUzI3@38.143.66.71:8090#%e7%be%8e%e5%9b%bd(%e6%ac%a2%e8%bf%8e%e8%ae%a2%e9%98%85Youtube%e7%a0%b4%e8%a7%a3%e8%b5%84%e6%ba%90%e5%90%9b)
ss://YWVzLTI1Ni1nY206UmV4bkJnVTdFVjVBRHhH@172.99.190.92:7002#%e7%be%8e%e5%9b%bd(%e6%ac%a2%e8%bf%8e%e8%ae%a2%e9%98%85Youtube%e7%a0%b4%e8%a7%a3%e8%b5%84%e6%ba%90%e5%90%9b)
ss://YWVzLTI1Ni1nY206WTZSOXBBdHZ4eHptR0M=@38.143.66.71:5001#%e7%be%8e%e5%9b%bd(%e6%ac%a2%e8%bf%8e%e8%ae%a2%e9%98%85Youtube%e7%a0%b4%e8%a7%a3%e8%b5%84%e6%ba%90%e5%90%9b)
ss://YWVzLTI1Ni1nY206S2l4THZLendqZWtHMDBybQ==@38.143.66.71:8080#%e7%be%8e%e5%9b%bd(%e6%ac%a2%e8%bf%8e%e8%ae%a2%e9%98%85Youtube%e7%a0%b4%e8%a7%a3%e8%b5%84%e6%ba%90%e5%90%9b)
ss://YWVzLTI1Ni1nY206VEV6amZBWXEySWp0dW9T@38.91.102.86:6697#%e7%be%8e%e5%9b%bd(%e6%ac%a2%e8%bf%8e%e8%ae%a2%e9%98%85Youtube%e7%a0%b4%e8%a7%a3%e8%b5%84%e6%ba%90%e5%90%9b)